<?xml version="1.0" encoding="UTF-8" standalone="no"?>
<!-- Created with Inkscape (http://www.inkscape.org/) -->

<svg
   xmlns:dc="http://purl.org/dc/elements/1.1/"
   xmlns:cc="http://creativecommons.org/ns#"
   xmlns:rdf="http://www.w3.org/1999/02/22-rdf-syntax-ns#"
   xmlns:svg="http://www.w3.org/2000/svg"
   xmlns="http://www.w3.org/2000/svg"
   xmlns:xlink="http://www.w3.org/1999/xlink"
   xmlns:sodipodi="http://sodipodi.sourceforge.net/DTD/sodipodi-0.dtd"
   xmlns:inkscape="http://www.inkscape.org/namespaces/inkscape"
   width="128"
   height="128"
   id="svg4465"
   version="1.1"
   inkscape:version="0.92.3 (2405546, 2018-03-11)"
   sodipodi:docname="docky.svg">
  <defs
     id="defs4467">
    <linearGradient
       y2="33.646122"
       x2="-179.48473"
       y1="77.348625"
       x1="-179.48473"
       gradientTransform="matrix(1.634802,0,0,1.634802,361.64231,-85.980271)"
       gradientUnits="userSpaceOnUse"
       id="linearGradient3317-2"
       xlink:href="#linearGradient3890-5-8-6-0-4-5"
       inkscape:collect="always" />
    <linearGradient
       id="linearGradient3890-5-8-6-0-4-5">
      <stop
         id="stop3892-2-9-9-3-3-4"
         offset="0"
         style="stop-color:#ffffff;stop-opacity:1;" />
      <stop
         id="stop3894-3-7-1-5-0-0"
         offset="1"
         style="stop-color:#f0f0f0;stop-opacity:1;" />
    </linearGradient>
    <linearGradient
       gradientTransform="translate(0,-63.999998)"
       x1="80"
       y1="118"
       x2="80"
       y2="18"
       id="linearGradient3511"
       xlink:href="#linearGradient3707-319-631"
       gradientUnits="userSpaceOnUse" />
    <linearGradient
       id="linearGradient3707-319-631">
      <stop
         id="stop4637"
         style="stop-color:#254b6d;stop-opacity:1"
         offset="0" />
      <stop
         id="stop4639"
         style="stop-color:#415b73;stop-opacity:1"
         offset="0.5" />
      <stop
         id="stop4641"
         style="stop-color:#6195b5;stop-opacity:1"
         offset="1" />
    </linearGradient>
    <linearGradient
       x1="16.626165"
       y1="15.298182"
       x2="20.054544"
       y2="24.627615"
       id="linearGradient3432"
       xlink:href="#linearGradient8265-821-176-38-919-66-249"
       gradientUnits="userSpaceOnUse"
       gradientTransform="matrix(2.5687073,0,0,2.7868791,2.3510206,-60.634183)" />
    <linearGradient
       id="linearGradient8265-821-176-38-919-66-249">
      <stop
         id="stop2687"
         style="stop-color:#ffffff;stop-opacity:1"
         offset="0" />
      <stop
         id="stop2689"
         style="stop-color:#ffffff;stop-opacity:0"
         offset="1" />
    </linearGradient>
    <linearGradient
       id="linearGradient3292">
      <stop
         offset="0"
         style="stop-color:#ffffff;stop-opacity:1;"
         id="stop3294" />
      <stop
         id="stop3296"
         style="stop-color:#ffffff;stop-opacity:0.23529412;"
         offset="0.07003064" />
      <stop
         offset="0.93133754"
         style="stop-color:#ffffff;stop-opacity:0.15686275;"
         id="stop3298" />
      <stop
         offset="1"
         style="stop-color:#ffffff;stop-opacity:0.39215687;"
         id="stop3300" />
    </linearGradient>
    <radialGradient
       cx="1.080768"
       cy="10.165854"
       r="23"
       fx="1.080768"
       fy="10.165854"
       id="radialGradient3464"
       xlink:href="#linearGradient2867-449-88-871-390-598-476-591-434-148"
       gradientUnits="userSpaceOnUse"
       gradientTransform="matrix(2.3809317e-7,3.6840362,-5.9140321,1.6642668e-7,124.12118,-35.111034)" />
    <linearGradient
       id="linearGradient2867-449-88-871-390-598-476-591-434-148">
      <stop
         id="stop4627"
         style="stop-color:#51cfee;stop-opacity:1"
         offset="0" />
      <stop
         id="stop4629"
         style="stop-color:#49a3d2;stop-opacity:1"
         offset="0.26238" />
      <stop
         id="stop4631"
         style="stop-color:#3470b4;stop-opacity:1"
         offset="0.704952" />
      <stop
         id="stop4633"
         style="stop-color:#1b5699;stop-opacity:1"
         offset="1" />
    </linearGradient>
    <linearGradient
       x1="10.014208"
       y1="44.960102"
       x2="10.014208"
       y2="2.8764627"
       id="linearGradient3466"
       xlink:href="#linearGradient3707-319-631"
       gradientUnits="userSpaceOnUse"
       gradientTransform="matrix(2.532002,0,0,2.4174818,3.2319968,-53.049191)" />
    <linearGradient
       id="linearGradient5060">
      <stop
         id="stop5062"
         style="stop-color:#000000;stop-opacity:1"
         offset="0" />
      <stop
         id="stop5064"
         style="stop-color:#000000;stop-opacity:0"
         offset="1" />
    </linearGradient>
    <linearGradient
       id="linearGradient5048">
      <stop
         id="stop5050"
         style="stop-color:#000000;stop-opacity:0"
         offset="0" />
      <stop
         id="stop5056"
         style="stop-color:#000000;stop-opacity:1"
         offset="0.5" />
      <stop
         id="stop5052"
         style="stop-color:#000000;stop-opacity:0"
         offset="1" />
    </linearGradient>
  </defs>
  <sodipodi:namedview
     id="base"
     pagecolor="#ffffff"
     bordercolor="#666666"
     borderopacity="1.0"
     inkscape:pageopacity="0.0"
     inkscape:pageshadow="2"
     inkscape:zoom="3.8890873"
     inkscape:cx="115.17339"
     inkscape:cy="43.006826"
     inkscape:current-layer="layer1"
     showgrid="true"
     inkscape:document-units="px"
     inkscape:grid-bbox="true"
     inkscape:window-width="1920"
     inkscape:window-height="938"
     inkscape:window-x="0"
     inkscape:window-y="28"
     inkscape:window-maximized="1"
     showguides="false" />
  <metadata
     id="metadata4470">
    <rdf:RDF>
      <cc:Work
         rdf:about="">
        <dc:format>image/svg+xml</dc:format>
        <dc:type
           rdf:resource="http://purl.org/dc/dcmitype/StillImage" />
        <dc:title />
      </cc:Work>
    </rdf:RDF>
  </metadata>
  <g
     id="layer1"
     inkscape:label="Layer 1"
     inkscape:groupmode="layer"
     transform="translate(0,64)">
    <rect
       width="118.99786"
       height="98.997871"
       rx="7"
       ry="7"
       x="4.5010695"
       y="-44.498932"
       id="rect2551"
       style="fill:url(#radialGradient3464);fill-opacity:1;fill-rule:evenodd;stroke:none;stroke-width:1.00213289;stroke-linecap:round;stroke-linejoin:round;stroke-miterlimit:4;stroke-opacity:1;stroke-dasharray:none;stroke-dashoffset:0" />
    <path
       inkscape:connector-curvature="0"
       d="m 64,-30.999998 c -4.424309,0 -8.001329,3.584068 -8,8 -10e-4,3.331917 2.094569,6.083063 5,7.28125 l 0,2.71875 -12,0 c -0.531205,0 -1,0.43524 -1,1 l 0,3 c 0,0.564761 0.434363,1 1,1 l 12,0 0,37 c 0,1.027408 -1.714455,1.048759 -2.6875,1.15625 -1.425576,-0.0088 -2.292292,-0.372615 -3.65625,-0.75 -3.080264,-0.900716 -6.020849,-2.149029 -8.84375,-3.65625 -1.188526,-0.658934 -2.34875,-1.301298 -3.40625,-2.15625 -0.455798,-0.38886 -0.985943,-0.951091 -0.9375,-1.59375 0.06157,-0.486494 0.307933,-1.004748 0.84375,-1.09375 0.482928,-0.07648 0.916718,0.18255 1.34375,0.34375 0.368123,0.158746 0.621384,-0.287761 0.5625,-0.59375 -0.05924,-0.806102 -0.332389,-1.552241 -0.75,-2.25 -0.868861,-1.429161 -2.205964,-2.492205 -3.59375,-3.40625 -1.481703,-0.946238 -3.061283,-1.986606 -4,-3.5 -0.186742,-0.279699 -0.394132,-0.742461 -0.8125,-0.59375 -0.581599,0.188642 -0.90264,0.758637 -1.1875,1.25 -0.801483,1.525236 -1.201141,3.170561 -1.5625,4.84375 -0.29706,1.331279 -0.353763,2.73727 -0.25,4.09375 0.107426,1.35726 0.200323,2.73252 0.75,4 0.34617,0.832938 0.955615,1.50446 1.5625,2.15625 0.387249,-0.409443 0.791326,-0.848936 1.1875,-1.25 0.513402,-0.515404 1.154861,-0.850035 1.90625,-0.75 1.022682,0.131626 1.946319,0.751344 2.75,1.34375 1.132039,0.880303 2.190334,1.801531 3.34375,2.65625 1.825128,1.394797 3.838221,2.415876 5.90625,3.40625 1.722958,0.800121 3.493278,1.599291 5.28125,2.25 0.320194,0.139841 0.674009,0.133494 1,0.25 3.217937,1.33831 5.928834,2.89595 8.15625,5.6875 0.0032,0.0383 -0.0032,0.11974 0,0.15625 0.02563,-0.0331 0.06804,-0.061 0.09375,-0.0937 0.02563,0.0327 0.0682,0.0607 0.09375,0.0937 0.01682,-0.0771 -0.01655,-0.17258 0,-0.25 2.220435,-2.75917 4.95783,-4.26355 8.15625,-5.59375 0.325994,-0.116505 0.679804,-0.110161 1,-0.25 1.787973,-0.650707 3.558293,-1.449881 5.28125,-2.25 2.068032,-0.990372 4.081121,-2.011451 5.90625,-3.40625 1.153414,-0.854721 2.211711,-1.775944 3.34375,-2.65625 0.803681,-0.592409 1.72732,-1.212115 2.75,-1.34375 0.751389,-0.100028 1.392847,0.234587 1.90625,0.75 0.396172,0.401063 0.800248,0.840558 1.1875,1.25 0.606886,-0.651791 1.216328,-1.323316 1.5625,-2.15625 0.54968,-1.267476 0.642579,-2.642744 0.75,-4 0.103768,-1.356476 0.04705,-2.76247 -0.25,-4.09375 -0.361363,-1.67319 -0.761018,-3.318516 -1.5625,-4.84375 -0.28486,-0.491361 -0.605898,-1.061351 -1.1875,-1.25 -0.418361,-0.148718 -0.62577,0.314051 -0.8125,0.59375 -0.938722,1.513394 -2.518299,2.553763 -4,3.5 -1.38779,0.914044 -2.724888,1.977086 -3.59375,3.40625 -0.417613,0.697762 -0.690751,1.443896 -0.75,2.25 -0.05889,0.305991 0.194384,0.752507 0.5625,0.59375 0.427031,-0.161201 0.860822,-0.420236 1.34375,-0.34375 0.535817,0.08902 0.782178,0.607257 0.84375,1.09375 0.04846,0.642658 -0.481701,1.204886 -0.9375,1.59375 -1.057498,0.854956 -2.217724,1.497317 -3.40625,2.15625 -2.822902,1.50722 -5.763486,2.755533 -8.84375,3.65625 -1.363959,0.377386 -2.230672,0.741186 -3.65625,0.75 C 68.462671,30.374577 67,29.709599 67,29.000002 l 0,-37 12,0 c 0.46234,0 1,-0.400807 1,-1 l 0,-3 c 0,-0.581977 -0.468795,-1 -1,-1 l -12,0 0,-2.71875 c 2.905425,-1.198188 5.001004,-3.949333 5,-7.28125 0.0013,-4.415932 -3.575707,-8 -8,-8 z m -0.15625,3.90625 c 2.147717,-10e-7 3.906898,1.700094 3.90625,3.84375 6.42e-4,2.143659 -1.758532,3.90625 -3.90625,3.90625 -2.147726,-10e-7 -3.938146,-1.762588 -3.9375,-3.90625 -6.45e-4,-2.143656 1.789775,-3.84375 3.9375,-3.84375 z"
       id="path1919"
       style="color:#000000;fill:url(#linearGradient3317-2);fill-opacity:1;fill-rule:nonzero;stroke:none;stroke-width:1;marker:none;visibility:visible;display:inline;overflow:visible;enable-background:accumulate" />
  </g>
</svg>
